{
  "page": 1,
  "total_results": 10000,
  "total_pages": 500,
  "results": [
    {
      "popularity": 2356.996,
      "vote_count": 1523,
      "video": false,
      "poster_path": "/riYInlsq2kf1AWoGm80JQW5dLKp.jpg",
      "id": 497582,
      "adult": false,
      "backdrop_path": "/kMe4TKMDNXTKptQPAdOF0oZHq3V.jpg",
      "original_language": "en",
      "original_title": "Enola Holmes",
      "genre_ids": [80, 18, 9648],
      "title": "Enola Holmes",
      "vote_average": 7.7,
      "overview": "While searching for her missing mother, intrepid teen Enola Holmes uses her sleuthing skills to outsmart big brother Sherlock and help a runaway lord.",
      "release_date": "2020-09-23"
    },
    {
      "popularity": 1792.051,
      "vote_count": 82,
      "video": false,
      "poster_path": "/6CoRTJTmijhBLJTUNoVSUNxZMEI.jpg",
      "id": 694919,
      "adult": false,
      "backdrop_path": "/pq0JSpwyT2URytdFG0euztQPAyR.jpg",
      "original_language": "en",
      "original_title": "Money Plane",
      "genre_ids": [28],
      "title": "Money Plane",
      "vote_average": 5.9,
      "overview": "A professional thief with $40 million in debt and his family's life on the line must commit one final heist - rob a futuristic airborne casino filled with the world's most dangerous criminals.",
      "release_date": "2020-09-29"
    },
    {
      "popularity": 1448.288,
      "vote_count": 39,
      "video": false,
      "poster_path": "/qOYf3L6eyCO027JoeM33pTJcNSR.jpg",
      "id": 623634,
      "adult": false,
      "backdrop_path": "/fbjzxbWAUijs0fsQ6Hlbls0NtAj.jpg",
      "original_language": "ca",
      "original_title": "La innòcencia",
      "genre_ids": [18],
      "title": "The Innocence",
      "vote_average": 6.2,
      "overview": "Lis is a teenager whose dream is to become a circus artist and leave her hometown, even if she knows that to do it she’ll have to fight her side against her parents. It’s summer and she spends her days playing with her friends and flirting with her boyfriend, a few years older than herself. The lack of privacy and the neighbours’ gossip force Lis to keep their relationship secret so that her parents won’t find out. A relationship which change her live forever.",
      "release_date": "2020-01-10"
    },
    {
      "popularity": 1395.955,
      "vote_count": 2257,
      "video": false,
      "poster_path": "/aKx1ARwG55zZ0GpRvU2WrGrCG9o.jpg",
      "id": 337401,
      "adult": false,
      "backdrop_path": "/zzWGRw277MNoCs3zhyG3YmYQsXv.jpg",
      "original_language": "en",
      "original_title": "Mulan",
      "genre_ids": [28, 12, 18, 14],
      "title": "Mulan",
      "vote_average": 7.4,
      "overview": "When the Emperor of China issues a decree that one man per family must serve in the Imperial Chinese Army to defend the country from Huns, Hua Mulan, the eldest daughter of an honored warrior, steps in to take the place of her ailing father. She is spirited, determined and quick on her feet. Disguised as a man by the name of Hua Jun, she is tested every step of the way and must harness her innermost strength and embrace her true potential.",
      "release_date": "2020-09-04"
    },
    {
      "popularity": 1165.121,
      "vote_count": 115,
      "video": false,
      "poster_path": "/ugZW8ocsrfgI95pnQ7wrmKDxIe.jpg",
      "id": 724989,
      "adult": false,
      "backdrop_path": "/86L8wqGMDbwURPni2t7FQ0nDjsH.jpg",
      "original_language": "en",
      "original_title": "Hard Kill",
      "genre_ids": [28, 53],
      "title": "Hard Kill",
      "vote_average": 5,
      "overview": "The work of billionaire tech CEO Donovan Chalmers is so valuable that he hires mercenaries to protect it, and a terrorist group kidnaps his daughter just to get it.",
      "release_date": "2020-08-25"
    },
    {
      "popularity": 1258.996,
      "vote_count": 100,
      "video": false,
      "poster_path": "/x0fojycYFbT0eqXXbEO6aDqkalX.jpg",
      "id": 621870,
      "adult": false,
      "backdrop_path": "/uN4BEmphubHVBSFibqiOwi7wq28.jpg",
      "original_language": "en",
      "original_title": "Secret Society of Second Born Royals",
      "genre_ids": [28, 12, 35, 14],
      "title": "Secret Society of Second Born Royals",
      "vote_average": 7.2,
      "overview": "Sam is a teenage royal rebel, second in line to the throne of the kingdom of Illyria. Just as her disinterest in the royal way of life is at an all-time high, she discovers she has super-human abilities and is invited to join a secret society of similar extraordinary second-born royals charged with keeping the world safe.",
      "release_date": "2020-09-25"
    },
    {
      "popularity": 1045.033,
      "vote_count": 418,
      "video": false,
      "poster_path": "/qzA87Wf4jo1h8JMk9GilyIYvwsA.jpg",
      "id": 539885,
      "adult": false,
      "backdrop_path": "/54yOImQgj8i85u9hxxnaIQBRUuo.jpg",
      "original_language": "en",
      "original_title": "Ava",
      "genre_ids": [28, 80, 18, 53],
      "title": "Ava",
      "vote_average": 6,
      "overview": "A black ops assassin is forced to fight for her own survival after a job goes dangerously wrong.",
      "release_date": "2020-07-02"
    },
    {
      "popularity": 1042.148,
      "vote_count": 123,
      "video": false,
      "poster_path": "/9Rj8l6gElLpRL7Kj17iZhrT5Zuw.jpg",
      "id": 734309,
      "adult": false,
      "backdrop_path": "/7fvdg211A2L0mHddvzyArRuRalp.jpg",
      "original_language": "en",
      "original_title": "Santana",
      "genre_ids": [28],
      "title": "Santana",
      "vote_average": 5.6,
      "overview": "Two brothers — one a narcotics agent and the other a general — finally discover the identity of the drug lord who murdered their parents decades ago. They may kill each other before capturing the bad guys.",
      "release_date": "2020-08-28"
    },
    {
      "popularity": 931.488,
      "vote_count": 284,
      "video": false,
      "poster_path": "/uOw5JD8IlD546feZ6oxbIjvN66P.jpg",
      "id": 718444,
      "adult": false,
      "backdrop_path": "/x4UkhIQuHIJyeeOTdcbZ3t3gBSa.jpg",
      "original_language": "pt",
      "original_title": "Rogue",
      "genre_ids": [28],
      "title": "Rogue",
      "vote_average": 5.9,
      "overview": "Battle-hardened O’Hara leads a lively mercenary team of soldiers on a daring mission: rescue hostages from their captors in remote Africa. But as the mission goes awry and the team is stranded, O’Hara’s squad must face a bloody, brutal encounter with a gang of rebels.",
      "release_date": "2020-08-20"
    },
    {
      "popularity": 961.096,
      "vote_count": 200,
      "video": false,
      "poster_path": "/vJHSParlylICnI7DuuI54nfTPRR.jpg",
      "id": 438396,
      "adult": false,
      "backdrop_path": "/qGZe9qTuydxyJYQ60XDtEckzLR8.jpg",
      "original_language": "es",
      "original_title": "Orígenes secretos",
      "genre_ids": [18, 53],
      "title": "Unknown Origins",
      "vote_average": 6.2,
      "overview": "In Madrid, Spain, a mysterious serial killer ruthlessly murders his victims by recreating the first appearance of several comic book superheroes. Cosme, a veteran police inspector who is about to retire, works on the case along with the tormented inspector David Valentín and his own son Jorge Elías, a nerdy young man who owns a comic book store.",
      "release_date": "2020-08-28"
    },
    {
      "popularity": 765.917,
      "vote_count": 33,
      "video": false,
      "poster_path": "/4BgSWFMW2MJ0dT5metLzsRWO7IJ.jpg",
      "id": 726739,
      "adult": false,
      "backdrop_path": "/t22fWbzdnThPseipsdpwgdPOPCR.jpg",
      "original_language": "en",
      "original_title": "Cats & Dogs 3: Paws Unite",
      "genre_ids": [28, 35],
      "title": "Cats & Dogs 3: Paws Unite",
      "vote_average": 6.9,
      "overview": "It's been ten years since the creation of the Great Truce, an elaborate joint-species surveillance system designed and monitored by cats and dogs to keep the peace when conflicts arise. But when a tech-savvy villain hacks into wireless networks to use frequencies only heard by cats and dogs, he manipulates them into conflict and the worldwide battle between cats and dogs is BACK ON. Now, a team of inexperienced and untested agents will have to use their old-school animal instincts to restore order and peace between cats and dogs everywhere.",
      "release_date": "2020-10-02"
    },
    {
      "popularity": 952.808,
      "vote_count": 552,
      "video": false,
      "poster_path": "/sy6DvAu72kjoseZEjocnm2ZZ09i.jpg",
      "id": 581392,
      "adult": false,
      "backdrop_path": "/gEjNlhZhyHeto6Fy5wWy5Uk3A9D.jpg",
      "original_language": "ko",
      "original_title": "반도",
      "genre_ids": [28, 27, 53],
      "title": "Peninsula",
      "vote_average": 7.1,
      "overview": "A soldier and his team battle hordes of post-apocalyptic zombies in the wastelands of the Korean Peninsula.",
      "release_date": "2020-07-15"
    },
    {
      "popularity": 685.922,
      "vote_count": 101,
      "video": false,
      "poster_path": "/i4kPwXPlM1iy8Jf3S1uuLuwqQAV.jpg",
      "id": 721452,
      "adult": false,
      "backdrop_path": "/riDrpqQtZpXGeiJdlmfcwwPH7nN.jpg",
      "original_language": "en",
      "original_title": "One Night in Bangkok",
      "genre_ids": [28, 53],
      "title": "One Night in Bangkok",
      "vote_average": 7.2,
      "overview": "A hit man named Kai flies into Bangkok, gets a gun, and orders a cab. He offers a professional female driver big money to be his all-night driver. But when she realizes Kai is committing brutal murders at each stop, it's too late to walk away. Meanwhile, an offbeat police detective races to decode the string of slayings before more blood is spilled.",
      "release_date": "2020-08-25"
    },
    {
      "popularity": 672.892,
      "vote_count": 1377,
      "video": false,
      "poster_path": "/TnOeov4w0sTtV2gqICqIxVi74V.jpg",
      "id": 605116,
      "adult": false,
      "backdrop_path": "/qVygtf2vU15L2yKS4Ke44U4oMdD.jpg",
      "original_language": "en",
      "original_title": "Project Power",
      "genre_ids": [28, 80, 878],
      "title": "Project Power",
      "vote_average": 6.6,
      "overview": "An ex-soldier, a teen and a cop collide in New Orleans as they hunt for the source behind a dangerous new pill that grants users temporary superpowers.",
      "release_date": "2020-08-14"
    },
    {
      "popularity": 656.604,
      "vote_count": 9,
      "video": false,
      "poster_path": "/rAeQaySpt5iSdK8eWOpBnSB8mGQ.jpg",
      "id": 720395,
      "adult": false,
      "backdrop_path": "/a0tw4II2EQFjzSONDk86Q0YLNT2.jpg",
      "original_language": "en",
      "original_title": "Let It Snow",
      "genre_ids": [27, 53],
      "title": "Let It Snow",
      "vote_average": 5.3,
      "overview": "Separated from her fiance after sneaking onto a restricted slope, Mia, a free riding snowboarder, must survive not only against nature, but the masked snowmobile rider in black who's out for her blood.",
      "release_date": "2020-09-22"
    },
    {
      "popularity": 558.406,
      "vote_count": 98,
      "video": false,
      "poster_path": "/n6hptKS7Y0ZjkYwbqKOK3jz9XAC.jpg",
      "id": 594328,
      "adult": false,
      "backdrop_path": "/lkeBhXGJFRlhI7cBWn8LQQAdZqK.jpg",
      "original_language": "en",
      "original_title": "Phineas and Ferb The Movie: Candace Against the Universe",
      "genre_ids": [16, 35, 10402, 878, 10751, 10770],
      "title": "Phineas and Ferb The Movie: Candace Against the Universe",
      "vote_average": 7.1,
      "overview": "Phineas and Ferb travel across the galaxy to rescue their older sister Candace, who has been abducted by aliens and taken to a utopia in a far-off planet, free of her pesky little brothers.",
      "release_date": "2020-08-28"
    },
    {
      "popularity": 576.526,
      "vote_count": 115,
      "video": false,
      "poster_path": "/eDnHgozW8vfOaLHzfpHluf1GZCW.jpg",
      "id": 606234,
      "adult": false,
      "backdrop_path": "/u9YEh2xVAPVTKoaMNlB5tH6pXkm.jpg",
      "original_language": "en",
      "original_title": "Archive",
      "genre_ids": [878],
      "title": "Archive",
      "vote_average": 5.6,
      "overview": "2038: George Almore is working on a true human-equivalent AI, and his latest prototype is almost ready. This sensitive phase is also the riskiest as he has a goal that must be hidden at all costs—being reunited with his dead wife.",
      "release_date": "2020-08-13"
    },
    {
      "popularity": 594.731,
      "vote_count": 148,
      "video": false,
      "poster_path": "/irkse1FMm9dWemwlxKJ7RINT9Iy.jpg",
      "id": 627290,
      "adult": false,
      "backdrop_path": "/pGqBDYycGWsMYc57sYv5M9GAQoW.jpg",
      "original_language": "en",
      "original_title": "Antebellum",
      "genre_ids": [27],
      "title": "Antebellum",
      "vote_average": 6.1,
      "overview": "Successful author Veronica finds herself trapped in a horrifying reality and must uncover the mind-bending mystery before it's too late.",
      "release_date": "2020-09-02"
    },
    {
      "popularity": 500.584,
      "vote_count": 711,
      "video": false,
      "poster_path": "/jHo2M1OiH9Re33jYtUQdfzPeUkx.jpg",
      "id": 385103,
      "adult": false,
      "backdrop_path": "/fKtYXUhX5fxMxzQfyUcQW9Shik6.jpg",
      "original_language": "en",
      "original_title": "Scoob!",
      "genre_ids": [12, 16, 35, 10751],
      "title": "Scoob!",
      "vote_average": 7.4,
      "overview": "In Scooby-Doo’s greatest adventure yet, see the never-before told story of how lifelong friends Scooby and Shaggy first met and how they joined forces with young detectives Fred, Velma, and Daphne to form the famous Mystery Inc. Now, with hundreds of cases solved, Scooby and the gang face their biggest, toughest mystery ever: an evil plot to unleash the ghost dog Cerberus upon the world. As they race to stop this global “dogpocalypse,” the gang discovers that Scooby has a secret legacy and an epic destiny greater than anyone ever imagined.",
      "release_date": "2020-07-08"
    },
    {
      "popularity": 486.47,
      "vote_count": 425,
      "video": false,
      "poster_path": "/kPzcvxBwt7kEISB9O4jJEuBn72t.jpg",
      "id": 677638,
      "adult": false,
      "backdrop_path": "/pO1SnM5a1fEsYrFaVZW78Wb0zRJ.jpg",
      "original_language": "en",
      "original_title": "We Bare Bears: The Movie",
      "genre_ids": [12, 16, 35, 10751],
      "title": "We Bare Bears: The Movie",
      "vote_average": 7.8,
      "overview": "When Grizz, Panda, and Ice Bear's love of food trucks and viral videos went out of hand, it catches the attention of Agent Trout from the National Wildlife Control, who pledges to restore the “natural order” by separating them forever. Chased away from their home, the Bears embark on an epic road trip as they seek refuge in Canada, with their journey being filled with new friends, perilous obstacles, and huge parties. The risky journey also forces the Bears to face how they first met and became brothers, in order to keep their family bond from splitting apart.",
      "release_date": "2020-06-30"
    }
  ]
}
